category_bb,category_meli,status,link,shipping
1000056,MLM15030,en_revision,https://electronica.mercadolibre.com.mx/televisores/otras-tvs/,me
1000057,MLM159250,cat_incorr,https://electronica.mercadolibre.com.mx/televisores/tv-led/smart-tv/otros-tamanos/,me
1000058,MLM15030,en_revision,,me
1000062,MLM3526,en_revision,https://celulares.mercadolibre.com.mx/otras-marcas/,me
1000063,MLM3526,publicar,https://celulares.mercadolibre.com.mx/otras-marcas/,me
1000067,MLM182246,publicar,https://computacion.mercadolibre.com.mx/discos-duros-y-removibles/discos-duros/externos/otras-capacidades/,me
1000068,MLM1912,publicar,https://computacion.mercadolibre.com.mx/otros/,me
1000069,MLM1009,publicar,https://computacion.mercadolibre.com.mx/memorias-ram/,me
1000073,MLM31673,publicar,https://celulares.mercadolibre.com.mx/accesorios/manos-libres/bluetooth/otras-marcas/,me
1000074,MLM32005,publicar,https://celulares.mercadolibre.com.mx/accesorios/manos-libres/convencionales/,me
1000075,MLM44569,publicar,https://electronica.mercadolibre.com.mx/accesorios-audio-y-video/audifonos/con-microfono/in-ear/,me
1000076,MLM72077,publicar,https://electronica.mercadolibre.com.mx/audio-profesional-djs/audifonos/otras-marcas/,me
1000078,MLM174575,publicar,https://fotografia.mercadolibre.com.mx/camaras/camaras-digitales/otras-marcas/,me
1000079,MLM99793,publicar,https://fotografia.mercadolibre.com.mx/camaras/camaras-analogicas/otros-tipos/otras-marcas/,me
1000080,MLM174575,publicar,https://fotografia.mercadolibre.com.mx/camaras/camaras-digitales/otros-tipos/otras-marcas/,me
1000856,MLM4772,en_revision,https://hogar.mercadolibre.com.mx/muebles-para-salas/muebles-para-tv/,me
1001267,MLM129051,en_revision,https://deportes.mercadolibre.com.mx/bicicletas-ciclismo/bicicletas/adultos/electricas/otras-marcas/,me
1001269,MLM187616,en_revision,https://celulares.mercadolibre.com.mx/accesorios/cargadores/otros-tipos/,me
accesorios camaras,MLM3357,publicar,https://fotografia.mercadolibre.com.mx/accesorios-camaras/otros-accesorios/,me
accesorios camaras deportivas,MLM3357,publicar,https://fotografia.mercadolibre.com.mx/accesorios-camaras/otros-accesorios/,me
accesorios de cocina,MLM194013,publicar,https://hogar.mercadolibre.com.mx/cocina-articulos-otros/,me
accesorios para celulares,MLM5071,publicar,https://celulares.mercadolibre.com.mx/accesorios/otros/,me
accesorios para computadoras,MLM1717,publicar,https://computacion.mercadolibre.com.mx/accesorios/otros-accesorios/,me
accesorios para tablets,MLM120289,publicar,https://computacion.mercadolibre.com.mx/tablets-y-accesorios/accesorios/otros/otras-marcas/,me
accesorios playstation,MLM167956,publicar,https://videojuegos.mercadolibre.com.mx/playstation/otros/,me
accesorios wearables,MLM168703,publicar,https://deportes.mercadolibre.com.mx/relojes-deportivos/otras-marcas/,me
all in one,MLM1912,publicar,https://computacion.mercadolibre.com.mx/otros/,me
amateur,MLM149103,publicar,https://electronica.mercadolibre.com.mx/drones/equipos/otros/drone,me
amplificadores,MLM22608,publicar,https://electronica.mercadolibre.com.mx/audio-y-video-para-autos/amplificadores/otros/,me
amplificadores bocinas y monitores,MLM6190,publicar,https://electronica.mercadolibre.com.mx/audio-profesional-djs/otros/,me
antenas y transmisores,MLM122436,publicar,https://electronica.mercadolibre.com.mx/accesorios-audio-y-video/antenas/antenas-digitales/,me
apple watch,MLM131932,publicar,https://celulares.mercadolibre.com.mx/accesorios-smartwatches-smartwatch/apple-watch/,me
aspiradoras,MLM120620,en_revision,https://electrodomesticos.mercadolibre.com.mx/artefactos-para-el-hogar/aspiradoras/otras-aspiradoras/otras-marcas/,me
audifonos,MLM44599,publicar,https://electronica.mercadolibre.com.mx/accesorios-audio-y-video/audifonos/sin-microfono/otros/,me
audifonos dj,MLM72077,publicar,https://electronica.mercadolibre.com.mx/audio-profesional-djs/audifonos/otras-marcas/,me
autoestereos,MLM4808,publicar,https://electronica.mercadolibre.com.mx/audio-y-video-para-autos/otros/,me
automatizacion,MLM1899,en_revision,https://electrodomesticos.mercadolibre.com.mx/otros/,no_dim
autos a control remoto,MLM107180,publicar,https://listado.mercadolibre.com.mx/juegos-y-juguetes/juguetes/carros/a-control-remoto/otros-carros/otros/,me
barras de sonido,MLM1913,publicar,https://electronica.mercadolibre.com.mx/audio-casa-hogar/otros/,me
baterias portatiles,MLM187617,publicar,https://celulares.mercadolibre.com.mx/accesorios/cargadores/portatil/,me
bocinas,MLM4808,publicar,https://electronica.mercadolibre.com.mx/audio-y-video-para-autos/otros/,me
bocinas portatiles,MLM38930,publicar,https://electronica.mercadolibre.com.mx/audio-portatil/otros/,me
cables y conectores,MLM38279,publicar,https://electronica.mercadolibre.com.mx/accesorios-audio-y-video/cables/otros/,me
cafeteras,MLM118843,publicar,https://electrodomesticos.mercadolibre.com.mx/electrodomesticos-de-cocina/cafeteras/otras-cafeteras/otras-marcas/,me
calentadores ventiladores y aire acondicionado,MLM158917,en_revision,https://electrodomesticos.mercadolibre.com.mx/climatizacion/otros/,no_dim
camaras de vigilancia,MLM44575,publicar,https://electronica.mercadolibre.com.mx/seguridad-y-vigilancia/camaras-de-vigilancia/otros/,me
camaras deportivas,MLM174583,publicar,https://fotografia.mercadolibre.com.mx/camaras-video/otras-marcas/,me
camaras digitales,MLM174575,publicar,https://fotografia.mercadolibre.com.mx/camaras/camaras-digitales/otras-marcas/,me
camaras profesionales,MLM174583,publicar,https://fotografia.mercadolibre.com.mx/camaras-video/otras-marcas/,me
central de vapor,MLM118863,publicar,https://electrodomesticos.mercadolibre.com.mx/artefactos-para-el-hogar/planchas/otras-planchas/otras/,me
cerraduras inteligentes,MLM168469,publicar,https://hogar.mercadolibre.com.mx/seguridad-para-el-hogar/cerraduras/,me
consolas nintendo,MLM167955,publicar,https://videojuegos.mercadolibre.com.mx/nintendo/otros/,me
consolas playstation,MLM167956,publicar,https://videojuegos.mercadolibre.com.mx/playstation/otros/,me
consolas xbox,MLM167957,publicar,https://videojuegos.mercadolibre.com.mx/xbox/otros/,me
consumibles,MLM3570,publicar,https://computacion.mercadolibre.com.mx/cartuchos-toner-papel/otros/,me
control remoto,MLM59797,publicar,https://electronica.mercadolibre.com.mx/accesorios-audio-y-video/controles-remoto/otros/otros/,me
cuidado de la salud,MLM167993,en_revision,https://listado.mercadolibre.com.mx/salud-y-equipamiento-medico/cuidado-de-la-salud/otros/,me
cuidado personal,MLM1275,en_revision,https://listado.mercadolibre.com.mx/cuidado-personal/otros/,me
drones,MLM149103,publicar,https://electronica.mercadolibre.com.mx/drones/equipos/otros/drone,me
energia,MLM1722,publicar,https://computacion.mercadolibre.com.mx/accesorios/reguladores-y-no-breaks/otros/,me
entusiasta,MLM149103,publicar,https://electronica.mercadolibre.com.mx/drones/equipos/otros/drone,me
equipaje,MLM9289,en_revision,https://ropa.mercadolibre.com.mx/bolsas-y-carteras/maletas/,me
equipos dj,MLM191831,publicar,https://electronica.mercadolibre.com.mx/audio-profesional-djs/controladores/otro/,me
estuches y fundas,MLM3014,publicar,https://instrumentos.mercadolibre.com.mx/otros/,me
estufas hornos y campanas,MLM158829,en_revision,https://electrodomesticos.mercadolibre.com.mx/coccion/otros/,no_dim
extractores de jugos,MLM119901,publicar,https://electrodomesticos.mercadolibre.com.mx/electrodomesticos-de-cocina/extractores-de-jugo/otras-marcas/extractor-de-jugo,me
figuras interactivas,MLM189634,publicar,https://videojuegos.mercadolibre.com.mx/figuras-interactivas/otros/,me
handycam,MLM174583,publicar,https://fotografia.mercadolibre.com.mx/camaras-video/otras-marcas/,me
headsets,MLM149185,publicar,,me
herramientas,MLM186864,en_revision,https://listado.mercadolibre.com.mx/herramientas-y-construccion/herramientas/otros/,no_dim
hidrolavadoras,MLM31544,en_revision,https://listado.mercadolibre.com.mx/herramientas-y-construccion/herramientas/electricas/hidrolavadora/,me
iluminacion,MLM171807,publicar,https://hogar.mercadolibre.com.mx/iluminacion-para-el-hogar/lamparas/otras/,me
impresoras tinta y toner,MLM182236,publicar,https://computacion.mercadolibre.com.mx/impresoras/otros/,me
instrumentos de cuerdas,MLM194142,publicar,https://instrumentos.mercadolibre.com.mx/instrumentos-cuerdas-otros/,no_dim
instrumentos de percusion,MLM3759,no_publicar,https://instrumentos.mercadolibre.com.mx/baterias-y-percusion/otros/,no_dim
instrumentos de viento,MLM4616,publicar,https://instrumentos.mercadolibre.com.mx/de-viento/otros/,me
ipod mp3 y mp4,MLM38930,publicar,https://electronica.mercadolibre.com.mx/audio-portatil/otros/,me
juguetes,MLM2534,publicar,https://listado.mercadolibre.com.mx/juegos-y-juguetes/juguetes/otros/,me
karaoke,MLM6190,publicar,https://electronica.mercadolibre.com.mx/audio-profesional-djs/otros/,me
laptops,MLM1912,publicar,https://computacion.mercadolibre.com.mx/otros/,me
lavadoras y secadoras,MLM27583,en_revision,https://electrodomesticos.mercadolibre.com.mx/lavado-y-secado-ropa/otros/,no_dim
lavavajillas,MLM158915,en_revision,https://electrodomesticos.mercadolibre.com.mx/lavavajillas/,me
licuadoras y batidoras,MLM119879,no_publicar,https://electrodomesticos.mercadolibre.com.mx/electrodomesticos-de-cocina/otros/,no_dim
maquinas para postres,MLM119879,publicar,https://electrodomesticos.mercadolibre.com.mx/electrodomesticos-de-cocina/otros/,no_dim
microfonos,MLM107772,publicar,https://electronica.mercadolibre.com.mx/accesorios-audio-y-video/microfonos/otros/otras-marcas/,me
microondas y tostadores,MLM119879,no_publicar,https://electrodomesticos.mercadolibre.com.mx/electrodomesticos-de-cocina/otros/,no_dim
mochilas y estuches,MLM17967,publicar,https://fotografia.mercadolibre.com.mx/accesorios-camaras/fundas-estuches/otros/,me
monitores de ejercicio,MLM168703,publicar,https://deportes.mercadolibre.com.mx/relojes-deportivos/otras-marcas/,me
muebles hogar,MLM1902,en_revision,https://hogar.mercadolibre.com.mx/otros/,me
nintendo accesorios,MLM167955,publicar,https://videojuegos.mercadolibre.com.mx/nintendo/otros/,me
oficina,MLM1009,en_revision,https://electronica.mercadolibre.com.mx/otros/,me
ollas de coccion lenta,MLM189675,publicar,https://electrodomesticos.mercadolibre.com.mx/electrodomesticos-cocina-preparacion-alimentos-ollas-electricas/,me
pantallas,MLM15030,en_revision,https://electronica.mercadolibre.com.mx/televisores/otras-tvs/,me
pantallas para autos,MLM7446,publicar,https://autos.mercadolibre.com.mx/accesorios/audio-video/pantallas/,me
parrillas electricas,MLM158546,publicar,https://electrodomesticos.mercadolibre.com.mx/coccion/parrillas/electricas/otras-marcas/,me
peliculas,MLM1228,en_revision,https://listado.mercadolibre.com.mx/musica-peliculas-y-series/peliculas/,me
planchas,MLM118863,publicar,https://electrodomesticos.mercadolibre.com.mx/artefactos-para-el-hogar/planchas/otras-planchas/otras/,me
profesional,MLM149103,publicar,https://electronica.mercadolibre.com.mx/drones/equipos/otros/drone,me
radio dos vias walkie talkie,MLM16538,publicar,https://telefonos.mercadolibre.com.mx/equipos-radiofrecuencia/portatiles/otras-marcas/,me
rasuradoras y depiladoras,MLM187665,publicar,https://listado.mercadolibre.com.mx/salud-y-belleza/cuidado-personal/otros/,me
redes,MLM7615,publicar,https://computacion.mercadolibre.com.mx/redes-inalambricas-componentes-routers-wifi-access-points/otros/,me
refrigeradores,MLM158381,no_publicar,https://electrodomesticos.mercadolibre.com.mx/refrigeracion/refrigeradores/otras-marcas/otras-puertas/,no_dim
reproductor de medios,MLM126076,en_revision,https://electronica.mercadolibre.com.mx/accesorios-audio-y-video/media-streaming/otro/,me
reproductores de video,MLM122007,publicar,https://electronica.mercadolibre.com.mx/blu-ray-players-y-video/otras-marca/,me
robots,MLM38485,publicar,https://listado.mercadolibre.com.mx/juegos-y-juguetes/juguetes/robots/,me
salud para bebes,MLM167993,en_revision,https://listado.mercadolibre.com.mx/salud-y-equipamiento-medico/cuidado-de-la-salud/otros/,me
secadoras alaciadoras y estilizadoras,MLM172016,publicar,https://listado.mercadolibre.com.mx/cuidado-personal/electrodomesticos-de-belleza/otros/,me
seguridad infantil,MLM1886,en_revision,https://listado.mercadolibre.com.mx/bebes/seguridad/otros/,me
series de tv,MLM119193,en_revision,https://listado.mercadolibre.com.mx/musica-peliculas-y-series/series-de-tv/,me
sistema de navegacion gps,MLM10722,publicar,https://electronica.mercadolibre.com.mx/gps/otros/,me
sistemas de audio,MLM10572,publicar,https://electronica.mercadolibre.com.mx/audio-casa-hogar/minicomponentes/otros/,me
smartwatches,MLM126796,publicar,https://celulares.mercadolibre.com.mx/accesorios-smartwatches-smartwatch/otras-marcas/,me
software,MLM1739,en_revision,https://computacion.mercadolibre.com.mx/software/otros/,me
soportes para tv,MLM194128,publicar,https://televisores.mercadolibre.com.mx/accesorios-audio-video-soportes-tv-monitores/,me
subwoofer,MLM191452,publicar,https://electronica.mercadolibre.com.mx/audio-video-autos-woofers-subwoofers/otros/otro/,me
tablets,MLM93862,publicar,https://computacion.mercadolibre.com.mx/tablets-y-accesorios/tablets/otras-marcas/,me
tarjetas de regalo,MLM122417,en_revision,https://listado.mercadolibre.com.mx/otras-categorias/tarjetas-de-regalo/,me
teatros en casa,MLM1913,publicar,https://electronica.mercadolibre.com.mx/audio-casa-hogar/otros/,me
teclados,MLM26561,publicar,https://instrumentos.mercadolibre.com.mx/teclados-y-pianos/otros/teclado,me
telefonos inalambricos,MLM32103,publicar,https://telefonos.mercadolibre.com.mx/telefonos-convencionales/telefonos-inalambricos/otras-marcas/,me
tornamesas,MLM161260,publicar,https://electronica.mercadolibre.com.mx/audio-profesional-djs/tornamesas/otras/,me
tostadores de pan,MLM119992,publicar,https://electrodomesticos.mercadolibre.com.mx/electrodomesticos-de-cocina/preparacion-de-alimentos/tostadoras/,me
wafleras y sandwicheras,MLM158827,publicar,https://electrodomesticos.mercadolibre.com.mx/electrodomesticos-de-cocina/preparacion-de-alimentos/otros/,me
xbox accesorios,MLM167957,publicar,https://videojuegos.mercadolibre.com.mx/xbox/otros/,me
videojuegos playstation,MLM1009,en_revision,https://electronica.mercadolibre.com.mx/otros/,me
videojuegos nintendo,MLM1009,en_revision,https://electronica.mercadolibre.com.mx/otros/,me
accesorios para el hogar,MLM1009,en_revision,https://electronica.mercadolibre.com.mx/otros/,me
videojuegos xbox,MLM1009,en_revision,https://electronica.mercadolibre.com.mx/otros/,me
accesorios,MLM1009,en_revision,https://electronica.mercadolibre.com.mx/otros/,me
pc gaming,MLM1009,en_revision,https://electronica.mercadolibre.com.mx/otros/,me
1000083,MLM1009,cat_incorr,https://electronica.mercadolibre.com.mx/otros/,me
preventa videojuegos y consolas,MLM1009,cat_incorr,https://electronica.mercadolibre.com.mx/otros/,me
1001402,MLM168703,publicar,https://deportes.mercadolibre.com.mx/relojes-deportivos/otras-marcas/,me
telefonos celulares,MLM3526,en_revision,https://celulares.mercadolibre.com.mx/otras-marcas/,me
1000065,MLM1009,cat_incorr,https://electronica.mercadolibre.com.mx/otros/,me
